{
  "content": [
    {
      "repairOrderId": 1,
      "repairOrderStartDate": "0006-07-10",
      "repairOrderEndDate": "0006-07-10",
      "repairOrderCostEstimated": 58.00,
      "client": {
        "clientPhoneNumber": "991-661-4818",
        "firstName": "Валентина",
        "lastName": "Уварова"
      },
      "device": {
        "deviceIMEIOrSn": "61623938784530",
        "devicePassword": "2752",
        "type": {
          "typeName": "Onion"
        },
        "model": {
          "modelName": "Capers"
        },
        "brand": {
          "brandName": "Potatoes"
        },
        "appearance": {
          "appearanceName": "Red cabbage"
        },
        "complectation": {
          "complectationName": "Snowpeas"
        },
        "defect": {
          "defectName": "Limes"
        }
      },
      "status": {
        "statusName": "Ready"
      }
    },
    {
      "repairOrderId": 2,
      "repairOrderStartDate": "0006-07-09",
      "repairOrderEndDate": "0006-07-10",
      "repairOrderCostEstimated": 80.00,
      "client": {
        "clientPhoneNumber": "090-043-5974",
        "firstName": "Артём",
        "lastName": "Дьячкова"
      },
      "device": {
        "deviceIMEIOrSn": "22157151254407",
        "devicePassword": "3685",
        "type": {
          "typeName": "Eggplant"
        },
        "model": {
          "modelName": "Bean Shoots"
        },
        "brand": {
          "brandName": "Chilli Pepper"
        },
        "appearance": {
          "appearanceName": "Jicama"
        },
        "complectation": {
          "complectationName": "Prunes"
        },
        "defect": {
          "defectName": "Blackberries"
        }
      },
      "status": {
        "statusName": "Waiting for a spare part"
      }
    },
    {
      "repairOrderId": 3,
      "repairOrderStartDate": "0006-07-10",
      "repairOrderEndDate": "0006-07-10",
      "repairOrderCostEstimated": 13.00,
      "client": {
        "clientPhoneNumber": "038.993.4017",
        "firstName": "Аркадий",
        "lastName": "Пахомова"
      },
      "device": {
        "deviceIMEIOrSn": "57158137933451",
        "devicePassword": "7603",
        "type": {
          "typeName": "Leeks"
        },
        "model": {
          "modelName": "Okra"
        },
        "brand": {
          "brandName": "Iceberg lettuce"
        },
        "appearance": {
          "appearanceName": "Red cabbage"
        },
        "complectation": {
          "complectationName": "Snowpeas"
        },
        "defect": {
          "defectName": "Cherries"
        }
      },
      "status": {
        "statusName": "Ready"
      }
    },
    {
      "repairOrderId": 4,
      "repairOrderStartDate": "0006-07-10",
      "repairOrderEndDate": "0006-07-10",
      "repairOrderCostEstimated": 46.00,
      "client": {
        "clientPhoneNumber": "264-626-1337",
        "firstName": "Сергей",
        "lastName": "Комиссаров"
      },
      "device": {
        "deviceIMEIOrSn": "20368837542036",
        "devicePassword": "1184",
        "type": {
          "typeName": "Sun dried tomatoes"
        },
        "model": {
          "modelName": "Fresh Chillies"
        },
        "brand": {
          "brandName": "Eggplant"
        },
        "appearance": {
          "appearanceName": "Chinese Cabbage"
        },
        "complectation": {
          "complectationName": "Olives"
        },
        "defect": {
          "defectName": "Custard Apples"
        }
      },
      "status": {
        "statusName": "In work"
      }
    },
    {
      "repairOrderId": 5,
      "repairOrderStartDate": "0006-07-10",
      "repairOrderEndDate": "0006-07-10",
      "repairOrderCostEstimated": 30.00,
      "client": {
        "clientPhoneNumber": "896.043.6798",
        "firstName": "Вероника",
        "lastName": "Самсонова"
      },
      "device": {
        "deviceIMEIOrSn": "81607835292661",
        "devicePassword": "1026",
        "type": {
          "typeName": "Swiss Chard"
        },
        "model": {
          "modelName": "Cauliflower"
        },
        "brand": {
          "brandName": "Chilli Pepper"
        },
        "appearance": {
          "appearanceName": "Jicama"
        },
        "complectation": {
          "complectationName": "Olives"
        },
        "defect": {
          "defectName": "Aubergine"
        }
      },
      "status": {
        "statusName": "Ready"
      }
    },
    {
      "repairOrderId": 6,
      "repairOrderStartDate": "0006-07-10",
      "repairOrderEndDate": "0006-07-10",
      "repairOrderCostEstimated": 33.00,
      "client": {
        "clientPhoneNumber": "975-270-9606",
        "firstName": "Аркадий",
        "lastName": "Якушев"
      },
      "device": {
        "deviceIMEIOrSn": "58958711683487",
        "devicePassword": "2980",
        "type": {
          "typeName": "Fresh Chillies"
        },
        "model": {
          "modelName": "Bean Shoots"
        },
        "brand": {
          "brandName": "Asparagus"
        },
        "appearance": {
          "appearanceName": "Bean Shoots"
        },
        "complectation": {
          "complectationName": "Snowpeas"
        },
        "defect": {
          "defectName": "Custard Apples"
        }
      },
      "status": {
        "statusName": "In work"
      }
    },
    {
      "repairOrderId": 7,
      "repairOrderStartDate": "0006-07-10",
      "repairOrderEndDate": "0006-07-10",
      "repairOrderCostEstimated": 33.00,
      "client": {
        "clientPhoneNumber": "1-514-685-6337",
        "firstName": "Зинаида",
        "lastName": "Пахомова"
      },
      "device": {
        "deviceIMEIOrSn": "54202520511700",
        "devicePassword": "9423",
        "type": {
          "typeName": "Swiss Chard"
        },
        "model": {
          "modelName": "Fresh Chillies"
        },
        "brand": {
          "brandName": "Eggplant"
        },
        "appearance": {
          "appearanceName": "Asian Greens"
        },
        "complectation": {
          "complectationName": "Snowpeas"
        },
        "defect": {
          "defectName": "Custard Apples"
        }
      },
      "status": {
        "statusName": "In work"
      }
    },
    {
      "repairOrderId": 8,
      "repairOrderStartDate": "0006-07-10",
      "repairOrderEndDate": "0006-07-10",
      "repairOrderCostEstimated": 67.00,
      "client": {
        "clientPhoneNumber": "693-922-4652",
        "firstName": "Кира",
        "lastName": "Попов"
      },
      "device": {
        "deviceIMEIOrSn": "68632772114475",
        "devicePassword": "4020",
        "type": {
          "typeName": "Eggplant"
        },
        "model": {
          "modelName": "Cauliflower"
        },
        "brand": {
          "brandName": "Potatoes"
        },
        "appearance": {
          "appearanceName": "Jicama"
        },
        "complectation": {
          "complectationName": "Kiwiberries"
        },
        "defect": {
          "defectName": "Blackberries"
        }
      },
      "status": {
        "statusName": "Waiting for a spare part"
      }
    },
    {
      "repairOrderId": 9,
      "repairOrderStartDate": "0006-07-10",
      "repairOrderEndDate": "0006-07-09",
      "repairOrderCostEstimated": 48.00,
      "client": {
        "clientPhoneNumber": "044-540-8146",
        "firstName": "Валерия",
        "lastName": "Новиков"
      },
      "device": {
        "deviceIMEIOrSn": "70380218491819",
        "devicePassword": "7635",
        "type": {
          "typeName": "Sun dried tomatoes"
        },
        "model": {
          "modelName": "Okra"
        },
        "brand": {
          "brandName": "Chilli Pepper"
        },
        "appearance": {
          "appearanceName": "Chinese Cabbage"
        },
        "complectation": {
          "complectationName": "Snowpeas"
        },
        "defect": {
          "defectName": "Figs"
        }
      },
      "status": {
        "statusName": "Ready"
      }
    },
    {
      "repairOrderId": 10,
      "repairOrderStartDate": "0006-07-10",
      "repairOrderEndDate": "0006-07-10",
      "repairOrderCostEstimated": 39.00,
      "client": {
        "clientPhoneNumber": "1-081-392-9260",
        "firstName": "Алла",
        "lastName": "Волкова"
      },
      "device": {
        "deviceIMEIOrSn": "68134566233437",
        "devicePassword": "8343",
        "type": {
          "typeName": "Sun dried tomatoes"
        },
        "model": {
          "modelName": "Capers"
        },
        "brand": {
          "brandName": "Iceberg lettuce"
        },
        "appearance": {
          "appearanceName": "Arugula"
        },
        "complectation": {
          "complectationName": "Kiwiberries"
        },
        "defect": {
          "defectName": "Blackberries"
        }
      },
      "status": {
        "statusName": "Waiting for a spare part"
      }
    },
    {
      "repairOrderId": 11,
      "repairOrderStartDate": "0006-07-10",
      "repairOrderEndDate": "0006-07-10",
      "repairOrderCostEstimated": 53.00,
      "client": {
        "clientPhoneNumber": "1-476-530-7332",
        "firstName": "Евгения",
        "lastName": "Фокина"
      },
      "device": {
        "deviceIMEIOrSn": "40583097576701",
        "devicePassword": "5240",
        "type": {
          "typeName": "Red Pepper"
        },
        "model": {
          "modelName": "Bean Shoots"
        },
        "brand": {
          "brandName": "Fresh Chillies"
        },
        "appearance": {
          "appearanceName": "Red cabbage"
        },
        "complectation": {
          "complectationName": "Snowpeas"
        },
        "defect": {
          "defectName": "Blackberries"
        }
      },
      "status": {
        "statusName": "In work"
      }
    },
    {
      "repairOrderId": 12,
      "repairOrderStartDate": "0006-07-10",
      "repairOrderEndDate": "0006-07-10",
      "repairOrderCostEstimated": 72.00,
      "client": {
        "clientPhoneNumber": "1-505-148-5876",
        "firstName": "София",
        "lastName": "Овчинникова"
      },
      "device": {
        "deviceIMEIOrSn": "61158132169780",
        "devicePassword": "6735",
        "type": {
          "typeName": "Sun dried tomatoes"
        },
        "model": {
          "modelName": "Capers"
        },
        "brand": {
          "brandName": "Asparagus"
        },
        "appearance": {
          "appearanceName": "Dried Chinese Broccoli"
        },
        "complectation": {
          "complectationName": "Snowpeas"
        },
        "defect": {
          "defectName": "Aubergine"
        }
      },
      "status": {
        "statusName": "Ready"
      }
    },
    {
      "repairOrderId": 13,
      "repairOrderStartDate": "0006-07-10",
      "repairOrderEndDate": "0006-07-10",
      "repairOrderCostEstimated": 57.00,
      "client": {
        "clientPhoneNumber": "1-536-903-4036",
        "firstName": "Роман",
        "lastName": "Рогов"
      },
      "device": {
        "deviceIMEIOrSn": "12728680724952",
        "devicePassword": "2328",
        "type": {
          "typeName": "Fresh Chillies"
        },
        "model": {
          "modelName": "Okra"
        },
        "brand": {
          "brandName": "Spinach"
        },
        "appearance": {
          "appearanceName": "Bean Shoots"
        },
        "complectation": {
          "complectationName": "Kiwiberries"
        },
        "defect": {
          "defectName": "Blackberries"
        }
      },
      "status": {
        "statusName": "In work"
      }
    },
    {
      "repairOrderId": 14,
      "repairOrderStartDate": "0006-07-10",
      "repairOrderEndDate": "0006-07-09",
      "repairOrderCostEstimated": 89.00,
      "client": {
        "clientPhoneNumber": "(869) 283-3466",
        "firstName": "Маргарита",
        "lastName": "Капустин"
      },
      "device": {
        "deviceIMEIOrSn": "68134566233437",
        "devicePassword": "8343",
        "type": {
          "typeName": "Sun dried tomatoes"
        },
        "model": {
          "modelName": "Capers"
        },
        "brand": {
          "brandName": "Iceberg lettuce"
        },
        "appearance": {
          "appearanceName": "Arugula"
        },
        "complectation": {
          "complectationName": "Kiwiberries"
        },
        "defect": {
          "defectName": "Blackberries"
        }
      },
      "status": {
        "statusName": "Waiting for a spare part"
      }
    },
    {
      "repairOrderId": 15,
      "repairOrderStartDate": "0006-07-10",
      "repairOrderEndDate": "0006-07-10",
      "repairOrderCostEstimated": 91.00,
      "client": {
        "clientPhoneNumber": "213.320.2308",
        "firstName": "Михаил",
        "lastName": "Елисеева"
      },
      "device": {
        "deviceIMEIOrSn": "00272655554355",
        "devicePassword": "8824",
        "type": {
          "typeName": "Onion"
        },
        "model": {
          "modelName": "Raspberry"
        },
        "brand": {
          "brandName": "Chilli Pepper"
        },
        "appearance": {
          "appearanceName": "Jicama"
        },
        "complectation": {
          "complectationName": "Snowpeas"
        },
        "defect": {
          "defectName": "Aubergine"
        }
      },
      "status": {
        "statusName": "In work"
      }
    },
    {
      "repairOrderId": 16,
      "repairOrderStartDate": "0006-07-10",
      "repairOrderEndDate": "0006-07-10",
      "repairOrderCostEstimated": 72.00,
      "client": {
        "clientPhoneNumber": "486-317-0118",
        "firstName": "Лука",
        "lastName": "Колесников"
      },
      "device": {
        "deviceIMEIOrSn": "11090266448148",
        "devicePassword": "5643",
        "type": {
          "typeName": "Leeks"
        },
        "model": {
          "modelName": "Fresh Chillies"
        },
        "brand": {
          "brandName": "Spinach"
        },
        "appearance": {
          "appearanceName": "Carob Carrot"
        },
        "complectation": {
          "complectationName": "Apricots"
        },
        "defect": {
          "defectName": "Figs"
        }
      },
      "status": {
        "statusName": "In work"
      }
    },
    {
      "repairOrderId": 17,
      "repairOrderStartDate": "0006-07-10",
      "repairOrderEndDate": "0006-07-09",
      "repairOrderCostEstimated": 78.00,
      "client": {
        "clientPhoneNumber": "(887) 712-3329",
        "firstName": "Борис",
        "lastName": "Гурьева"
      },
      "device": {
        "deviceIMEIOrSn": "25828168806375",
        "devicePassword": "5780",
        "type": {
          "typeName": "Sun dried tomatoes"
        },
        "model": {
          "modelName": "Okra"
        },
        "brand": {
          "brandName": "Chilli Pepper"
        },
        "appearance": {
          "appearanceName": "Red cabbage"
        },
        "complectation": {
          "complectationName": "Honeydew melon"
        },
        "defect": {
          "defectName": "Blackberries"
        }
      },
      "status": {
        "statusName": "Waiting for a spare part"
      }
    },
    {
      "repairOrderId": 18,
      "repairOrderStartDate": "0006-07-10",
      "repairOrderEndDate": "0006-07-10",
      "repairOrderCostEstimated": 77.00,
      "client": {
        "clientPhoneNumber": "022.315.6968",
        "firstName": "Дмитрий",
        "lastName": "Гущина"
      },
      "device": {
        "deviceIMEIOrSn": "89903302489476",
        "devicePassword": "5703",
        "type": {
          "typeName": "Sun dried tomatoes"
        },
        "model": {
          "modelName": "Bean Shoots"
        },
        "brand": {
          "brandName": "Spinach"
        },
        "appearance": {
          "appearanceName": "Jicama"
        },
        "complectation": {
          "complectationName": "Snowpeas"
        },
        "defect": {
          "defectName": "Blackberries"
        }
      },
      "status": {
        "statusName": "In work"
      }
    },
    {
      "repairOrderId": 19,
      "repairOrderStartDate": "0006-07-10",
      "repairOrderEndDate": "0006-07-10",
      "repairOrderCostEstimated": 37.00,
      "client": {
        "clientPhoneNumber": "(900) 955-1252",
        "firstName": "Антонида",
        "lastName": "Селезнев"
      },
      "device": {
        "deviceIMEIOrSn": "18150908207812",
        "devicePassword": "1150",
        "type": {
          "typeName": "Eggplant"
        },
        "model": {
          "modelName": "Fresh Chillies"
        },
        "brand": {
          "brandName": "Iceberg lettuce"
        },
        "appearance": {
          "appearanceName": "Dried Chinese Broccoli"
        },
        "complectation": {
          "complectationName": "Snowpeas"
        },
        "defect": {
          "defectName": "Aubergine"
        }
      },
      "status": {
        "statusName": "In work"
      }
    },
    {
      "repairOrderId": 20,
      "repairOrderStartDate": "0006-07-10",
      "repairOrderEndDate": "0006-07-10",
      "repairOrderCostEstimated": 65.00,
      "client": {
        "clientPhoneNumber": "324.879.4869",
        "firstName": "Илья",
        "lastName": "Колобова"
      },
      "device": {
        "deviceIMEIOrSn": "14489198874560",
        "devicePassword": "7126",
        "type": {
          "typeName": "Onion"
        },
        "model": {
          "modelName": "Capers"
        },
        "brand": {
          "brandName": "Leeks"
        },
        "appearance": {
          "appearanceName": "Arugula"
        },
        "complectation": {
          "complectationName": "Kiwiberries"
        },
        "defect": {
          "defectName": "Blackberries"
        }
      },
      "status": {
        "statusName": "In work"
      }
    }
  ],
  "pageable": {
    "sort": {
      "sorted": false,
      "unsorted": true,
      "empty": true
    },
    "pageNumber": 0,
    "pageSize": 20,
    "offset": 0,
    "paged": true,
    "unpaged": false
  },
  "totalPages": 50,
  "totalElements": 1000,
  "last": false,
  "first": true,
  "number": 0,
  "sort": {
    "sorted": false,
    "unsorted": true,
    "empty": true
  },
  "numberOfElements": 20,
  "size": 20,
  "empty": false
}
